{
  "transactionId": "88370504-d4f1-4801-9da1-6a80d64d1c17",
  "settlementId": "482474a0729f10011bcc43b806350000",
  "customerId": "PoolFX Supply LLC",
  "startDate": "1483257600000",
  "endDate": "1924934400000",
  "page": 37,
  "count": 100,
  "totalPages": 52,
  "companyIds": [
    "PFX",
    "CYP",
    "SCP"
  ],
  "products": [
    "EmploymentVerification",
    "WagePayments"
  ],
  "featureFlags": {
    "connector.et.phased.implementation-enabled": true,
    "connector.statement-display-fields": true,
    "connector.et.ytd.tax.filter.enabled": false,
    "connector.withholding-orders-api-upgrade-v34-2": true,
    "connector.value-mapping": true,
    "connector.lien-upsert": true,
    "connector.company-retrieval-mode": true,
    "connector.workday-to-cdm.long-timeouts": true,
    "connector.wage-payment.sc-notification": true,
    "connector.notification.unresponsive-transactions.excessive-logging": true,
    "connector.statement-sort-fields": true,
    "connector.notification.failed-transactions.excessive-logging": true,
    "connector.employee-suffix-lookup": true,
    "connector.payment-type": true,
    "cct.oracle-fusion-sc.cg-integration-mode": true,
    "connector.workday-ucev-earns-from-payments": true,
    "connector.employment-tax-code-exclusion": true,
    "connector.oracle-payslip-xml-splitter": true,
    "wage.payment.generate.only.adp.check.number": true,
    "connector.erp-security-validation": true,
    "wage.payment.generate.only.adp.check.numbers": false,
    "connector.canada-third-party-payments": true,
    "use-async-pipeline": true,
    "diamond.monitor-log-smartconnect.oracle": true,
    "connector.lien-history": true,
    "connector.comp-garn-api.suffix": true,
    "job-settlement.save.via-update": true,
    "connector.wage-payment.create-payment-report": true,
    "everge.cg-integration-mode": true,
    "cct.process-api.generate-clientids": true,
    "feature.minimize-redis-usage": true,
    "connector.employment-tax": true,
    "connector.wage-payment.package-revised-file-numbers-report": true,
    "connector.et.phased.impl.enabled": true,
    "cct.everge.cg-integration-mode": true,
    "connector.wage-payment.package-file-numbers-report": true,
    "connector.tax-credits": true,
    "connector.workday-get-payrate-from-summary-data": false,
    "connector.value-mapping-export": true,
    "connector.notification.failed-transactions": true,
    "feature.ev_use_new_earnings_mapping": true,
    "diamond.monitor-log-smartconnect.workday": true,
    "connector.ofc.cg.pqq.use_terminationdate": true,
    "connector.wage-payment.use_spec_20.6.1": true,
    "wp-akka.logging.memory": true,
    "connector.suppress-zero-net-gross": true,
    "job-settlement.settlements-key.use-customer-id": true,
    "connector.process_settlements_by_flow_control": true,
    "connector.wp-display-earnings-details": false,
    "connector.employment-verification": true,
    "use-new-historical-liens-service": true,
    "mock.mosaic-response": true,
    "connector.time-traveler": true,
    "worker-update-scheduler-toggle-flag": false,
    "connector.total-hours-worked": true,
    "cct.tcs.payroll.enable": false,
    "connector.value-mapping-import": true,
    "polling.apply-three-days-look-back": true,
    "connector.notification.unresponsive-transactions": true,
    "everge.integration-mode": true,
    "connector.oracle-error-messaging": true,
    "connector.cupid-analytics": true,
    "connector.transaction-restart": true,
    "cct.ui.openfile.erp.option": true,
    "connector.wp.mn.use.operating": false,
    "connector.paystatements-splitter": true,
    "connector.jms-retry-mechanism": true,
    "connector.support-liens-complete": true,
    "connector.flow-control": true,
    "oracle-fusion-sc.cg-integration-mode": true,
    "polling.do-not-use-cct-start-date": false,
    "post-message-to-external-transaction-tracking-topic": true,
    "connector.oracle-testfile-payslip": true,
    "connector.ucvendors-dropdown-display": true,
    "connector.unemployment-claims": true,
    "worker-update-scheduler-run-toggling-flag": true,
    "OracleFusionSC.integration-mode": true,
    "stop.test.files.at.production": true,
    "connector.wage-payment.cash-out-institution": true
  },
  "orgUnitIdByCompanyId": {
    "SCP": "89704879-4023-4b21-a786-40d3c1317ea7",
    "PFX": "320dea57-91ce-4a96-9a27-cb6385e4c1a1",
    "CYP": "a83e36e6-745a-40e4-afa8-fb290ddfc5b9"
  },
  "flow": "PAYROLL_SHADOW_USA",
  "payrollHistoryParentTransactionId": null
}